{
  "project_info": {
    "project_number": "901158269863",
    "firebase_url": "https://eat2gether-fec14.firebaseio.com",
    "project_id": "eat2gether-fec14",
    "storage_bucket": "eat2gether-fec14.appspot.com"
  },
  "client": [
    {
      "client_info": {
        "mobilesdk_app_id": "1:901158269863:android:66575512460924bf",
        "android_client_info": {
          "package_name": "com.gavin.eat2gether"
        }
      },
      "oauth_client": [
        {
          "client_id": "901158269863-4mkt1gll02bsehkj220otf5hcodnhms9.apps.googleusercontent.com",
          "client_type": 3
        }
      ],
      "api_key": [
        {
          "current_key": "AIzaSyD5vMq8S9t6-OMLmfybXeGNcWiSonqorU8"
        }
      ],
      "services": {
        "analytics_service": {
          "status": 1
        },
        "appinvite_service": {
          "status": 1,
          "other_platform_oauth_client": []
        },
        "ads_service": {
          "status": 2
        }
      }
    },
    {
      "client_info": {
        "mobilesdk_app_id": "1:901158269863:android:b5b9be8f3acdb450",
        "android_client_info": {
          "package_name": "com.gavin.eat2gether.debug"
        }
      },
      "oauth_client": [
        {
          "client_id": "901158269863-4mkt1gll02bsehkj220otf5hcodnhms9.apps.googleusercontent.com",
          "client_type": 3
        }
      ],
      "api_key": [
        {
          "current_key": "AIzaSyD5vMq8S9t6-OMLmfybXeGNcWiSonqorU8"
        }
      ],
      "services": {
        "analytics_service": {
          "status": 1
        },
        "appinvite_service": {
          "status": 1,
          "other_platform_oauth_client": []
        },
        "ads_service": {
          "status": 2
        }
      }
    }
  ],
  "configuration_version": "1"
}